<?xml version="1.0" standalone="no"?>
<!DOCTYPE svg PUBLIC "-//W3C//DTD SVG 1.1//EN" "http://www.w3.org/Graphics/SVG/1.1/DTD/svg11.dtd" >
<!--
2017-6-22: Created with FontForge (http://fontforge.org)
-->
<svg xmlns="http://www.w3.org/2000/svg" xmlns:xlink="http://www.w3.org/1999/xlink" version="1.1">
<metadata>
Created by FontForge 20160405 at Thu Jun 22 03:43:48 2017
 By Apache
Copyright (c) 2017, Apache
</metadata>
<defs>
<font id="Flaticon" horiz-adv-x="512" >
  <font-face 
    font-family="Flaticon"
    font-weight="400"
    font-stretch="normal"
    units-per-em="512"
    panose-1="2 0 5 3 0 0 0 0 0 0"
    ascent="448"
    descent="-64"
    bbox="0 -64.0088 512.002 448"
    underline-thickness="25.6"
    underline-position="-51.2"
    unicode-range="U+0020-F11E"
  />
    <missing-glyph />
    <glyph glyph-name="space" unicode=" " horiz-adv-x="200" 
 />
    <glyph glyph-name="uniF11D" unicode="&#xf11d;" 
d="M392.93 213.831v0l0.000976562 -0.000976562v-61.123c-18.2051 -89.6729 -101.42 -157.172 -196.466 -157.172c-108.505 0 -196.465 87.9619 -196.465 196.466s87.96 196.464 196.464 196.463c53.5303 0 102.049 -21.417 137.482 -56.1377l-44.3672 -48.2246
c-23.7412 24.001 -56.6885 38.875 -93.1152 38.875c-72.3359 0 -130.976 -58.6377 -130.976 -130.976c0 -72.335 58.6377 -130.977 130.976 -130.977c58.6484 0 108.283 38.5449 124.972 91.6836h-111.872v61.123h183.366zM512 213.935v-32.1475h-37.5068v-37.5078h-32.1504
v37.5078h-37.5068v32.1475h37.5068v37.5068h32.1504v-37.5068h37.5068z" />
    <glyph glyph-name="uniF11C" unicode="&#xf11c;" 
d="M301.28 191.995l201.338 -201.327c12.5088 -12.498 12.5088 -32.7773 0 -45.2754c-6.25391 -6.25488 -14.4512 -9.38184 -22.6377 -9.38184s-16.3828 3.12695 -22.6377 9.38184l-201.338 201.338l-201.348 -201.338
c-6.25488 -6.25488 -14.4512 -9.38184 -22.6377 -9.38184s-16.3838 3.12695 -22.6377 9.37109c-12.5088 12.498 -12.5088 32.7773 0 45.2754l201.349 201.338l-201.349 201.337c-12.5088 12.498 -12.5088 32.7773 0 45.2754c12.5088 12.5088 32.7666 12.5088 45.2754 0
l201.348 -201.338l201.338 201.338c12.5088 12.5088 32.7666 12.5088 45.2754 0c12.5088 -12.498 12.5088 -32.7773 0 -45.2754z" />
    <glyph glyph-name="uniF110" unicode="&#xf110;" 
d="M346.515 84.1104c33.8379 33.8477 88.8867 33.8477 122.726 0c16.3936 -16.3848 25.4199 -38.1855 25.4199 -61.3672c0 -23.1807 -9.02637 -44.9727 -25.4199 -61.3662c-16.915 -16.915 -39.1416 -25.377 -61.3672 -25.377c-22.2266 0 -44.4521 8.46191 -61.3672 25.377
c-16.3945 16.3848 -25.4199 38.1855 -25.4199 61.3662c0 10.7705 2.03125 21.2109 5.7627 30.9834l-150.177 91.1523c-15.5166 -23.6406 -42.2217 -39.3057 -72.5537 -39.3057c-47.8545 0 -86.7871 38.9326 -86.7871 86.7871s38.9326 86.7871 86.7871 86.7871
c30.332 0 57.0449 -15.665 72.5625 -39.3057l150.202 90.458c-3.67969 9.61523 -5.78809 20.0127 -5.78809 30.9131c0 47.8545 38.9326 86.7871 86.7871 86.7871s86.7871 -38.9326 86.7871 -86.7871s-38.9326 -86.7871 -86.7871 -86.7871
c-30.7578 0 -57.7656 16.125 -73.1699 40.3213l-150.003 -90.3369c3.95703 -9.92773 6.20508 -20.7246 6.20508 -32.0498c0 -11.3262 -2.24805 -22.1221 -6.21387 -32.0508l149.968 -91.0303c3.38477 5.28516 7.29883 10.2842 11.8467 14.8311zM407.882 430.643
c-38.291 0 -69.4297 -31.1475 -69.4297 -69.4297c0 -38.2812 31.1475 -69.4297 69.4297 -69.4297c38.2812 0 69.4297 31.1484 69.4297 69.4297c0 38.2822 -31.1484 69.4297 -69.4297 69.4297zM104.127 122.931c38.2822 0 69.4297 31.1475 69.4297 69.4297
c0 38.2812 -31.1475 69.4297 -69.4297 69.4297c-38.2812 0 -69.4297 -31.1484 -69.4297 -69.4297c0 -38.2822 31.1484 -69.4297 69.4297 -69.4297zM456.969 -26.3516c13.1221 13.1133 20.3428 30.5576 20.3428 49.0947c0 18.5381 -7.2207 35.9824 -20.335 49.0957
c-13.5381 13.5391 -31.3125 20.2998 -49.0947 20.2998c-17.7832 0 -35.5566 -6.76074 -49.0957 -20.2998c-13.1133 -13.1133 -20.334 -30.5576 -20.334 -49.0957c0 -18.5371 7.2207 -35.9814 20.334 -49.0947c27.0693 -27.0693 71.1133 -27.0693 98.1826 0z" />
    <glyph glyph-name="uniF106" unicode="&#xf106;" 
d="M0 448h512v-512h-512v512zM283.378 113.079c65.4512 0 109.828 59.6396 109.828 139.498c0 60.375 -51.1504 116.653 -128.908 116.653c-96.8213 0 -145.504 -69.3379 -145.504 -127.172c0 -35.0801 13.2695 -66.2051 41.6455 -77.8281
c4.63867 -1.90723 8.8916 -0.0712891 10.1875 5.05957c1.01562 3.62305 3.2041 12.5859 4.23633 16.3486c1.2959 5.12891 0.823242 6.89648 -2.94043 11.4141c-8.20996 9.64453 -13.4619 22.1611 -13.4619 39.9463c0 51.4121 38.4932 97.5039 100.234 97.5039
c54.7041 0 84.7236 -33.4355 84.7236 -78.0908c0 -58.6777 -25.9248 -108.182 -64.5576 -108.182c-21.3223 0 -37.1982 17.5752 -32.1221 39.1943c6.14453 25.7666 17.9785 53.6699 17.9785 72.2607c0 16.6992 -8.89355 30.5811 -27.4307 30.5811
c-21.8115 0 -39.3164 -22.5117 -39.3164 -52.7256c0 -19.2207 6.49414 -32.21 6.49414 -32.21s-22.2842 -94.4395 -26.1875 -110.982c-7.79102 -32.8926 -1.15527 -73.2236 -0.613281 -77.3379c0.349609 -2.39746 3.48242 -3.00977 4.86523 -1.1543
c1.97852 2.58984 27.957 34.5898 36.7793 66.5889c2.46875 9.10254 14.3018 56.0166 14.3018 56.0166c7.03711 -13.5498 27.7461 -25.3828 49.7676 -25.3828z" />
    <glyph glyph-name="uniF104" unicode="&#xf104;" 
d="M501.818 251.635c6.79102 -6.78418 10.1777 -15.0264 10.1807 -24.7266v-69.8203c0 -9.70215 -3.39453 -17.9404 -10.1816 -24.7227c-6.78613 -6.79102 -15.0283 -10.1816 -24.7305 -10.1816h-151.271v-151.28c0 -9.69434 -3.39062 -17.9404 -10.1816 -24.7305
c-6.79004 -6.78223 -15.0293 -10.1729 -24.7305 -10.1729h-69.8164c-9.69531 0 -17.9385 3.39062 -24.7266 10.1729c-6.78906 6.78613 -10.1816 15.0361 -10.1816 24.7305v151.28h-151.273c-9.69336 0 -17.9375 3.39062 -24.7266 10.1816
c-6.78809 6.78223 -10.1787 15.0205 -10.1787 24.7227v69.8203c0 9.7002 3.3916 17.9365 10.1807 24.7256c6.78809 6.78809 15.0322 10.1816 24.7266 10.1816h151.272v151.277c0 9.69434 3.39258 17.9385 10.1816 24.7266c6.78809 6.78906 15.0312 10.1807 24.7266 10.1807
h69.8115c9.70801 0 17.9453 -3.39551 24.7334 -10.1787c6.78516 -6.78906 10.1807 -15.0332 10.1807 -24.7266v-151.278h151.274c9.69336 0 17.9404 -3.39258 24.7305 -10.1816z" />
    <glyph glyph-name="uniF10E" unicode="&#xf10e;" 
d="M0 448h512v-512h-512v512zM396.941 264.289c14.2119 10.251 26.54 23.0596 36.2871 37.6426c-13.042 -5.78418 -27.0557 -9.69434 -41.7676 -11.4531c15.0156 9.00195 26.5459 23.25 31.9746 40.2334c-14.0518 -8.33301 -29.6162 -14.3887 -46.1797 -17.6455
c-13.2646 14.1318 -32.1641 22.9619 -53.082 22.9619c-40.1592 0 -72.7227 -32.5596 -72.7227 -72.7188c0 -5.69824 0.646484 -11.249 1.8877 -16.5742c-60.4385 3.03613 -114.024 31.9863 -149.89 75.9854c-6.26172 -10.7432 -9.84766 -23.2334 -9.84766 -36.5625
c0 -25.2275 12.835 -47.4873 32.3496 -60.5283c-11.9229 0.37793 -23.1348 3.65039 -32.9385 9.09668c-0.00683594 -0.303711 -0.00683594 -0.608398 -0.00683594 -0.916016c0 -35.2334 25.0693 -64.623 58.3359 -71.3066
c-6.10254 -1.6582 -12.5283 -2.55176 -19.1602 -2.55176c-4.68555 0 -9.24219 0.457031 -13.6846 1.30859c9.25488 -28.8926 36.1133 -49.918 67.9365 -50.502c-24.8906 -19.5088 -56.2461 -31.1348 -90.3174 -31.1348c-5.87109 0 -11.6592 0.344727 -17.3477 1.02148
c32.1816 -20.6377 70.4072 -32.6748 111.475 -32.6748c133.763 0 206.908 110.809 206.908 206.911c0 3.14941 -0.0712891 6.28613 -0.209961 9.40723z" />
    <glyph glyph-name="uniF10C" unicode="&#xf10c;" 
d="M84.8174 444.447c4.08887 2.36719 8.66504 3.55273 13.248 3.55273c4.57129 0 9.14648 -1.18555 13.2529 -3.55273l315.863 -229.503c8.18457 -4.72852 13.2539 -13.4824 13.2539 -22.9482c0 -9.46484 -5.05566 -18.2178 -13.2539 -22.9404l-315.863 -229.513
c-8.19727 -4.72363 -18.3027 -4.72363 -26.4941 0c-8.19922 4.73926 -13.2598 13.4971 -13.2598 22.9551v459.004c0 9.45996 5.05273 18.2129 13.2529 22.9453z" />
    <glyph glyph-name="uniF105" unicode="&#xf105;" 
d="M460.8 396.8c28.1602 0 51.2002 -23.04 51.2002 -51.2002v-307.199c0 -28.1602 -23.04 -51.2002 -51.2002 -51.2002h-409.6c-28.1602 0 -51.2002 23.04 -51.2002 51.2002v307.199c0 28.1602 23.04 51.2002 51.2002 51.2002h409.6zM460.8 38.4004v307.199h-30.7197
l-174.08 -107.52l-174.08 107.52h-30.7197v-307.199h51.2002v225.279l153.6 -97.2793l153.6 97.2793v-225.279h51.2002z" />
    <glyph glyph-name="uniF103" unicode="&#xf103;" 
d="M502.496 102.5c6.32715 -6.33398 9.50391 -13.8311 9.50391 -22.498s-3.17676 -16.1709 -9.50391 -22.498c-6.33105 -6.33398 -13.833 -9.50098 -22.5 -9.50098h-447.994c-8.66504 0 -16.1621 3.16699 -22.5029 9.50098c-6.33496 6.3291 -9.49902 13.833 -9.49902 22.498
s3.16406 16.1641 9.49902 22.498l223.997 223.996c6.33496 6.33398 13.832 9.49902 22.5039 9.49902s16.1709 -3.16504 22.498 -9.49902z" />
    <glyph glyph-name="uniF107" unicode="&#xf107;" 
d="M0 448h512v-512h-512v512zM298.473 170.461c1.08789 7.13086 1.65625 14.6182 1.65723 22.4805c0 7.92578 -0.649414 15.5762 -1.93262 22.8848h-106.877v-45.3652h60.8125c-6.72363 -29.7891 -30.0322 -44.667 -60.8125 -44.667
c-36.7236 0 -66.4971 30.4062 -66.4971 67.1475c0 36.708 29.7734 68.0244 66.4971 68.0244c17.4443 0 32.4697 -5.89648 43.4492 -16.958l32.4199 32.4199c-19.2471 18.6943 -45.6904 29.4639 -75.8691 29.4639c-62.3877 0 -112.967 -50.5791 -112.967 -112.951
c0 -62.3877 50.5791 -112.968 112.967 -112.968c55.5166 0 98.3975 32.9727 107.152 90.4883zM434.131 184.526v28.1328h-39.583v39.584h-28.1162v-39.584h-39.583v-28.1328h39.583v-39.5664h28.1162v39.5664h39.583z" />
    <glyph glyph-name="uniF115" unicode="&#xf115;" 
d="M188.177 348.841c0 12.8799 -2.62207 99.1641 108.701 99.1582h78.5898v-89.7373h-57.8008c-11.4326 0 -23 -11.8486 -23 -20.6582v-58.9365h80.6895c-3.23242 -45.1914 -9.89941 -86.5234 -9.89941 -86.5234h-71.1914v-256.143h-106.089v256.15h-51.6445v86.1982
h51.6445v70.4912z" />
    <glyph glyph-name="uniF119" unicode="&#xf119;" 
d="M0 319.996h511.999l-256.004 -255.992z" />
    <glyph glyph-name="uniF116" unicode="&#xf116;" 
d="M478.836 414.833c21.3818 -21.2725 33.1641 -49.6367 33.1641 -79.8555c0 -30.2178 -11.7822 -58.582 -33.1641 -79.9639l-293.02 -292.91c-2.72754 -2.83691 -6.54492 -4.36426 -10.3633 -4.36426s-7.63672 1.63672 -10.3643 4.36426l-118.037 118.037
l-15.1631 -112.146l77.6729 10.4727c8.07324 1.09082 15.4912 -4.58105 16.582 -12.6543s-4.58203 -15.4912 -12.6543 -16.582l-96.874 -13.0908c-0.654297 -0.109375 -1.30859 -0.109375 -1.96289 -0.109375c-3.81836 0 -7.63672 1.63672 -10.3643 4.36426
c-3.16309 3.16309 -4.7998 7.74512 -4.14551 12.3271l21.71 160.801c0.435547 3.16309 1.85449 6.10938 4.14551 8.40039l293.02 292.91c44.0723 44.1816 115.746 44.1816 159.818 0zM324.69 378.833l-267.384 -267.384l49.2002 -49.2002l267.384 267.384zM175.562 -6.69629
l267.384 267.383l-48.1094 48.1094l-267.384 -267.383zM463.454 281.741c12.3271 14.9453 19.0908 33.4912 19.0908 53.2363c0 22.3643 -8.61816 43.4189 -24.4365 59.1279c-15.8174 15.709 -36.7637 24.4365 -59.127 24.4365
c-19.6367 0 -38.291 -6.76367 -53.2373 -19.0908z" />
    <glyph glyph-name="uniF113" unicode="&#xf113;" 
d="M92.8994 53.3896c0 9.55566 7.74707 17.3018 17.3027 17.3018s17.3018 -7.74609 17.3018 -17.3018s-7.74609 -17.3018 -17.3018 -17.3018s-17.3027 7.74609 -17.3027 17.3018zM501.618 146.728c0 -13.8076 -6.93652 -26.0205 -17.502 -33.3555
c4.4873 -6.5293 7.12109 -14.4268 7.12109 -22.9297c0 -13.8066 -6.9375 -26.0186 -17.5029 -33.3535c4.48633 -6.5293 7.12109 -14.4258 7.12109 -22.9287c0 -22.377 -18.207 -40.583 -40.585 -40.583h-43.6445h-17.3018h-56.7197
c-40.749 0 -81.6787 9.37402 -118.367 27.1074l-15.5088 7.49707h-15.6211v-19.4795c0 -13.7227 -11.1641 -24.8848 -24.8848 -24.8848h-123.338c-13.7217 0 -24.8848 11.1631 -24.8848 24.8848v242.505c0 13.7227 11.1631 24.8857 24.8848 24.8857h123.34
c13.7217 0 24.8848 -11.1641 24.8848 -24.8857v-13.0605h28.6123l49.4922 41.4033c20.625 17.2559 36.1543 39.8154 44.9072 65.2441c0 0 9.70703 28.5977 9.98926 29.2959c6.40625 15.8516 21.5918 26.0918 38.6875 26.0918c23 0 41.7109 -18.7119 41.7109 -41.7109
c0 -0.166016 -0.0605469 -29.7725 -0.0605469 -29.7725c-0.0517578 -24.2588 -5.08789 -47.7949 -14.9678 -69.9512l-6.75781 -15.1514h106.694c22.377 0 40.583 -18.207 40.583 -40.585c0 -13.8076 -6.93652 -26.0195 -17.5029 -33.3545
c4.4873 -6.52832 7.12109 -14.4258 7.12109 -22.9287zM148.223 8.70215c0.0107422 0 0.015625 0.000976562 0.015625 0.000976562l-0.015625 242.505h-123.338v-242.506h123.338zM471.417 187.31c8.65625 0 15.6982 7.04297 15.7012 15.6992
c0 8.65723 -7.04297 15.6992 -15.6992 15.6992h-125.742c-9.18848 0 -11.875 8.74121 -11.9463 8.98633c-0.84375 2.7666 -0.740234 5.83594 0.530273 8.68555l14.4922 32.502c8.45703 18.9629 12.7676 39.1045 12.8115 59.8682c0 0 0.0605469 29.5566 0.0605469 29.7207
c0 9.27832 -7.54785 16.8262 -16.8252 16.8262c-6.55176 0 -12.4014 -3.72949 -15.1914 -9.58203c-0.0576172 -0.195312 -9.95801 -29.0186 -9.95801 -29.0186c-10.2266 -29.7109 -28.3711 -56.0723 -52.4707 -76.2314l-52.957 -44.3027
c-2.23828 -1.87305 -5.06445 -2.89844 -7.9834 -2.89844h-33.1299v-160.196h18.4717c1.875 0 3.72656 -0.424805 5.41504 -1.24023l18.0742 -8.7373c33.3311 -16.1113 70.5166 -24.627 107.537 -24.627h56.7197h17.3018h43.6445c8.65625 0 15.6992 7.04199 15.7021 15.6963
c0 8.65527 -7.04395 15.6992 -15.7002 15.6992h-7.32422c-6.87207 0 -12.4424 5.57031 -12.4424 12.4424s5.57031 12.4424 12.4424 12.4424h17.7041c8.6582 0 15.7002 7.04297 15.7002 15.6982c0 8.6582 -7.04395 15.7002 -15.7002 15.7002h-7.32422
c-6.87207 0 -12.4424 5.57031 -12.4424 12.4424s5.57031 12.4414 12.4424 12.4414h17.7041c8.6582 0 15.7002 7.04199 15.7002 15.7002s-7.04297 15.7002 -15.7002 15.7002h-7.32422c-6.87207 0 -12.4414 5.56934 -12.4414 12.4414s5.56934 12.4424 12.4414 12.4424h17.7061
z" />
    <glyph glyph-name="uniF11B" unicode="&#xf11b;" 
d="M0 448h512v-512h-512v512zM181.937 62.3887c74.0635 0 124.058 51.8447 124.056 125.908c0 9.25879 0 14.8125 -1.85156 22.2197h-122.205v-44.4385h74.0635c-3.70312 -18.5166 -22.2188 -55.5479 -74.0635 -55.5479c-44.4375 0 -79.6182 37.0312 -79.6182 81.4697
s35.1807 81.4697 79.6182 81.4697c25.9229 0 42.5869 -11.1094 51.8447 -20.3672l35.1807 33.3281c-22.2188 22.2197 -51.8438 35.1807 -87.0244 35.1807c-72.2119 0 -129.611 -57.4004 -129.611 -129.611s57.3994 -129.611 129.611 -129.611zM459.675 173.483v37.0322
h-37.0322v37.0312h-37.0322v-37.0312h-37.0322v-37.0322h37.0322v-37.0312h37.0322v37.0312h37.0322z" />
    <glyph glyph-name="uniF10F" unicode="&#xf10f;" 
d="M405.688 119.069c50.499 0 91.6416 -41.0361 91.6416 -91.5342c0 -50.499 -41.0371 -91.5352 -91.5352 -91.5352s-91.5352 41.1426 -91.5352 91.5352c0 10.6309 1.91406 20.9434 5.31641 30.5117l-140.545 78.5645c-16.7979 -21.9004 -43.1631 -36.04 -72.7178 -36.04
c-50.499 0 -91.6416 41.0371 -91.6416 91.5352s41.1426 91.5352 91.5352 91.5352c29.5547 0 55.9199 -14.0332 72.6113 -35.9336l140.438 78.458c-3.40234 9.46191 -5.20898 19.668 -5.20898 30.2988c0 50.499 41.0361 91.5352 91.5342 91.5352
c50.499 0 91.5352 -41.0361 91.5352 -91.5352c0 -50.498 -41.1426 -91.5342 -91.5352 -91.5342c-29.5547 0 -55.9199 14.1387 -72.6113 35.9336l-140.545 -78.459c3.40234 -9.56836 5.20996 -19.668 5.20996 -30.2988c0 -10.5254 -1.80762 -20.7314 -5.10352 -30.1924
l140.651 -78.5654c16.7979 21.6875 43.0566 35.7207 72.5049 35.7207zM405.688 419.189c-34.5518 0 -62.8301 -28.1729 -62.8301 -62.8311c0 -34.6572 28.1729 -62.8301 62.8301 -62.8301c34.6582 0 62.8311 28.1729 62.8311 62.8301
c0 34.6582 -28.1729 62.8311 -62.8311 62.8311zM106.312 129.275c34.5518 0 62.8301 28.1729 62.8301 62.8311c0 34.6572 -28.1729 62.8301 -62.8301 62.8301c-34.6582 0 -62.8311 -28.1729 -62.8311 -62.8301c0 -34.6582 28.1729 -62.8311 62.8311 -62.8311z
M405.688 -35.1895c34.6582 0 62.8311 28.1729 62.8311 62.8311c0 34.6572 -28.1729 62.8301 -62.8311 62.8301c-34.6572 0 -62.8301 -28.1729 -62.8301 -62.8301c0 -34.6582 28.1729 -62.8311 62.8301 -62.8311z" />
    <glyph glyph-name="uniF11E" unicode="&#xf11e;" 
d="M512 362.661v-341.322c0 -44.8398 -40.4824 -85.3389 -85.333 -85.3389h-91.0225v193.422h85.333v85.334h-85.333v33.9961c0 13.7275 8.80664 22.8926 16.3555 22.8926h68.9775v85.333h-68.9775c-52.9463 0 -96 -51.6377 -96 -108.977v-33.2451h-62.5781v-85.334h62.5781
v-193.422h-170.661c-44.8564 0 -85.3389 40.499 -85.3389 85.3389v341.322c0 44.8398 40.4824 85.3389 85.333 85.3389h341.334c44.8506 0 85.333 -40.499 85.333 -85.3389z" />
    <glyph glyph-name="uniF117" unicode="&#xf117;" 
d="M487.609 423.618c32.5176 -32.5176 32.5176 -85.4316 -0.00976562 -117.959l-334.194 -334.194c-0.0742188 -0.0742188 -0.166992 -0.111328 -0.241211 -0.185547c-0.212891 -0.194336 -0.444336 -0.324219 -0.666992 -0.5
c-0.574219 -0.454102 -1.19531 -0.833984 -1.8623 -1.14062c-0.305664 -0.138672 -0.602539 -0.258789 -0.917969 -0.361328c-0.240234 -0.0830078 -0.462891 -0.22168 -0.712891 -0.277344l-137.615 -32.7588c-0.704102 -0.166992 -1.42676 -0.25 -2.14062 -0.25
c-1.19531 0 -2.39062 0.231445 -3.51172 0.694336c-1.12109 0.463867 -2.15918 1.13965 -3.04004 2.02051c-0.796875 0.796875 -1.3623 1.75098 -1.81641 2.74316c-0.101562 0.22168 -0.194336 0.425781 -0.277344 0.657227
c-0.361328 0.992188 -0.59375 2.02051 -0.602539 3.07715c0 0.120117 0.0371094 0.231445 0.0371094 0.352539c0.0185547 0.620117 0.0556641 1.25098 0.204102 1.87109l32.7588 137.615c0.0273438 0.0927734 0.0830078 0.18457 0.111328 0.277344
c0.0644531 0.241211 0.18457 0.454102 0.268555 0.695312c0.287109 0.796875 0.666992 1.5293 1.1582 2.21484c0.175781 0.241211 0.342773 0.481445 0.537109 0.704102c0.139648 0.166992 0.232422 0.361328 0.389648 0.519531l334.186 334.185
c32.5264 32.5088 85.4316 32.5088 117.959 0zM474.506 410.515c-23.0566 23.0566 -59.2715 25.0215 -84.6719 6.02441l90.6953 -90.6963c18.9971 25.3916 17.0332 61.6064 -6.02344 84.6719zM428.635 272.9l13.1035 13.1035l-91.7432 91.7432l-13.1035 -13.1035z
M45.9736 -18.0176c3.61426 -3.62305 3.61426 -9.48926 0 -13.1035l-7.01562 -7.01465l99.4258 23.668l4.5498 40.9785l-47.4648 -5.27344c-0.333984 -0.0371094 -0.676758 -0.0556641 -1.01074 -0.0556641h-0.00878906h-0.00976562h-0.00878906h-0.00976562
c-0.342773 0 -0.675781 0.0185547 -1.00977 0.0556641c-0.361328 0.046875 -0.648438 0.241211 -1.00098 0.324219c-0.666992 0.158203 -1.30664 0.325195 -1.91797 0.612305c-0.463867 0.22168 -0.862305 0.491211 -1.2793 0.77832
c-0.52832 0.370117 -1.00977 0.768555 -1.45508 1.24121c-0.351562 0.371094 -0.638672 0.750977 -0.926758 1.17773c-0.351562 0.527344 -0.638672 1.07422 -0.879883 1.67676c-0.194336 0.500977 -0.352539 0.991211 -0.463867 1.5293
c-0.0644531 0.296875 -0.22168 0.546875 -0.258789 0.852539c-0.0371094 0.351562 0.0927734 0.666992 0.0927734 1.01953c0 0.342773 -0.129883 0.666992 -0.0927734 1.01953l5.27246 47.4648l-40.9785 -4.5498l-23.668 -99.416l7.01562 7.01465
c3.62305 3.62402 9.47949 3.62402 13.1035 0zM162.273 32.7568l-3.28027 -29.4971l256.538 256.537l-91.7432 91.7432l-256.538 -256.537l29.4971 3.28027l207.395 207.376c3.62402 3.62402 9.48047 3.62402 13.1035 0c3.62402 -3.62305 3.62402 -9.47949 0 -13.1035
l-207.395 -207.376l-4.91113 -44.2314l44.2305 4.91211l207.377 207.385c3.62305 3.62402 9.47949 3.62402 13.1035 0c3.62305 -3.62305 3.62305 -9.47949 0 -13.1035zM454.842 299.107l13.1123 13.1133l-91.7432 91.7422l-13.1123 -13.1123z" />
    <glyph glyph-name="uniF111" unicode="&#xf111;" 
d="M483.019 409.359c16.0078 0 28.9814 -12.9746 28.9834 -28.9814v-280.152c0 -16.0068 -12.9746 -28.9805 -28.9814 -28.9805h-319.614l-52.3203 -96.6055l-52.3213 96.6055h-29.7832c-16.0078 0 -28.9814 12.9736 -28.9814 28.9805v280.152
c0 16.0068 12.9736 28.9814 28.9814 28.9814h454.037zM492.679 119.548h0.000976562v241.509c0 16.0078 -12.9746 28.9824 -28.9814 28.9824h-415.396c-16.0068 0 -28.9814 -12.9746 -28.9814 -28.9824v-241.509c0 -16.0088 12.9746 -28.9824 28.9814 -28.9824h25.2627
l38.1768 -66.1338l38.1875 66.1338h313.769c16.0078 0 28.9814 12.9736 28.9814 28.9824z" />
    <glyph glyph-name="uniF112" unicode="&#xf112;" 
d="M256 -64l-78.7461 136.404h-98.415c-40.499 0 -73.4326 29.8525 -73.4326 66.5879v242.401c0 36.7354 32.9521 66.6064 73.4326 66.6064h354.322c40.4805 0 73.4141 -29.8711 73.4141 -66.6064v-242.401c0 -36.7354 -32.9336 -66.5879 -73.4141 -66.5879h-98.415z
M78.8389 411.099c-20.1299 0 -36.5322 -13.3203 -36.5322 -29.7051v-242.401c0 -16.3848 16.4023 -29.6875 36.5322 -29.6875h119.67l57.4355 -99.5029l57.418 99.5029h119.743c20.1484 0 36.5137 13.3213 36.5137 29.6875v242.401
c0 16.3848 -16.4209 29.7051 -36.5137 29.7051h-354.267z" />
    <glyph glyph-name="uniF109" unicode="&#xf109;" 
d="M494.628 214.002c11.585 -11.5879 17.376 -25.4863 17.3721 -41.6934v-128.003c0 -2.6709 -0.973633 -4.96875 -2.9209 -6.92578c-1.94727 -1.94434 -4.25586 -2.91699 -6.91895 -2.91699h-68.9229v-49.2305c0 -8.20898 -2.87305 -15.1797 -8.61523 -20.9258
c-5.73926 -5.73926 -12.7246 -8.61523 -20.9277 -8.61523h-295.384c-8.20605 0 -15.1816 2.87598 -20.9258 8.61523c-5.74414 5.74121 -8.61523 12.7168 -8.61523 20.9258v49.2305h-68.9248c-2.66406 0 -4.97266 0.972656 -6.92188 2.91699
c-1.94727 1.95801 -2.92285 4.25488 -2.92285 6.92578v128.003c0 16.207 5.79395 30.1055 17.3838 41.6934c11.5918 11.5908 25.4893 17.3877 41.6943 17.3877h19.6914v167.383c0 8.20605 2.87402 15.1816 8.61523 20.9219c5.74414 5.74512 12.7197 8.61426 20.9258 8.61426
h206.773c8.20996 0 17.2305 -2.05078 27.0781 -6.15137c9.8418 -4.10449 17.6357 -9.03027 23.3779 -14.7686l46.7764 -46.7715c5.74219 -5.74414 10.6621 -13.5381 14.7637 -23.3838c4.10547 -9.8418 6.16309 -18.8721 6.16309 -27.0742v-78.7695h19.6885
c16.2041 0 30.1016 -5.79395 41.6963 -17.3877zM393.851 -4.92383v78.7676h-275.694v-78.7676h275.694zM393.851 192.002v118.156h-49.2285c-8.20996 0 -15.1846 2.86914 -20.9268 8.61328c-5.73535 5.74609 -8.61133 12.7178 -8.61133 20.9229v49.2295h-196.928v-196.922
h275.694zM466.776 158.465c3.89844 3.89062 5.84961 8.51172 5.84961 13.8457c0 5.33301 -1.95508 9.9502 -5.84961 13.8447c-3.89551 3.89844 -8.5127 5.84766 -13.8447 5.84766c-5.33496 0 -9.95215 -1.94922 -13.8467 -5.84766
c-3.89355 -3.89551 -5.8418 -8.51172 -5.8418 -13.8447c0 -5.33398 1.94824 -9.95508 5.8418 -13.8457c3.89551 -3.89648 8.5127 -5.84961 13.8467 -5.84961c5.33301 0 9.9502 1.9541 13.8447 5.84961z" />
    <glyph glyph-name="uniF114" unicode="&#xf114;" 
d="M512 350.738c-14.0459 -21.0518 -31.8975 -39.5439 -52.5332 -54.2627l0.351562 -13.5977c0 -138.789 -105.612 -298.823 -298.823 -298.823c-59.3174 0 -114.507 17.4043 -160.994 47.2549c8.22168 -0.927734 16.5732 -1.43945 25.0508 -1.43945
c49.207 0 94.5107 16.7324 130.439 44.8877c-45.9434 0.832031 -84.7207 31.1943 -98.0938 72.9463c6.43066 -1.2793 12.9902 -1.95117 19.7725 -1.95117c9.59863 0 18.876 1.31152 27.6748 3.67871c-48.0225 9.66309 -84.2402 52.1191 -84.2402 102.989v1.31152
c14.1729 -7.87012 30.3623 -12.6055 47.5752 -13.1807c-28.1553 18.8115 -46.7119 50.9648 -46.7119 87.4072c0 19.2607 5.15137 37.3047 14.2061 52.79c51.7979 -63.541 129.191 -105.356 216.471 -109.74c-1.79199 7.67871 -2.7207 15.71 -2.7207 23.9316
c0 57.9727 47.0312 105.004 105.036 105.004c30.2354 0 57.4941 -12.7334 76.6582 -33.1777c23.9316 4.73535 46.3926 13.4707 66.7402 25.5c-7.87012 -24.4756 -24.4746 -45.0791 -46.167 -58.0693c21.2441 2.52832 41.4639 8.19141 60.3086 16.541z" />
    <glyph glyph-name="uniF100" unicode="&#xf100;" 
d="M255.999 448c141.16 0 255.999 -114.84 255.999 -255.999c0 -141.16 -114.839 -255.999 -255.999 -255.999c-141.159 0 -255.999 114.839 -255.999 255.999c0 141.159 114.84 255.999 255.999 255.999zM255.999 -30.6953c122.796 0 222.694 99.9023 222.694 222.696
s-99.9004 222.694 -222.694 222.694s-222.694 -99.8984 -222.694 -222.694s99.9004 -222.696 222.694 -222.696zM360.431 150.284c7.74707 -4.95703 10.0098 -15.2529 5.05469 -23c-22.2383 -34.7695 -60.1279 -55.5254 -101.354 -55.5254
c-66.3008 0 -120.24 53.9395 -120.24 120.242s53.9395 120.242 120.24 120.242c40.0029 0 77.2754 -19.8125 99.6973 -53.001c5.14941 -7.62109 3.14551 -17.9736 -4.47461 -23.1211c-7.625 -5.14941 -17.9736 -3.14355 -23.1211 4.47363
c-16.2227 24.0098 -43.1758 38.3438 -72.1016 38.3438c-47.9365 0 -86.9355 -39.001 -86.9355 -86.9375c0 -47.9375 38.999 -86.9375 86.9355 -86.9375c29.8096 0 57.2109 15.0156 73.2969 40.166c4.95703 7.74512 15.2539 10.0078 23.0029 5.05469z" />
    <glyph glyph-name="uniF10A" unicode="&#xf10a;" 
d="M446.231 218.332c14.2852 -14.5947 14.2852 -38.251 0.0195312 -52.8633l-347.029 -223.639c-18.8691 -12.2568 -44.1689 -6.50293 -44.1689 29.8838v440.372c0 39.8223 23.582 40.9727 44.1689 29.8848z" />
    <glyph glyph-name="uniF108" unicode="&#xf108;" 
d="M318.033 193.028l172.498 -193.028h-469.077l172.5 193.027l62.0479 -54.2832zM487.691 384l-231.69 -202.75l-231.702 202.75h463.393zM342.126 214.092l169.874 148.655v-338.753zM0 362.747l169.859 -148.624l-169.859 -190.129v338.753z" />
    <glyph glyph-name="uniF10D" unicode="&#xf10d;" 
d="M0 448h512v-512h-158.592v197.773h66.3428l10.6387 80.7373h-76.9814v56.1211c0 15.6689 12.7031 28.3721 28.3721 28.3721h49.8623v72.6016h-69.6836c-49.3125 0 -89.2881 -39.9756 -89.2881 -89.2881v-67.8057h-66.6553v-80.7363h66.6553v-197.775h-272.671v512z" />
    <glyph glyph-name="uniF10B" unicode="&#xf10b;" 
d="M111.67 -61.0127c-3.67871 -2.92871 -9.16309 -3.78613 -13.9717 -2.21484c-0.920898 0.308594 -1.6875 0.665039 -2.26855 0.984375c-3.46582 1.85352 -5.62305 5.46387 -5.62305 9.38281v489.699c0 3.93555 2.16211 7.5293 5.62305 9.39355
c0.564453 0.303711 1.33105 0.665039 2.32227 0.990234c4.75977 1.57031 10.2285 0.708008 13.8975 -2.2041l306.752 -244.704c5.06445 -4.04688 5.06445 -12.6035 0 -16.6504z" />
    <glyph glyph-name="uniF102" unicode="&#xf102;" 
d="M511.999 64.0039h-511.999l256.003 255.992z" />
    <glyph glyph-name="uniF101" unicode="&#xf101;" 
d="M256 448c141.031 0 256 -114.967 256 -256s-114.967 -256 -256 -256s-256 114.969 -256 256s114.967 256 256 256zM256 388.48c-108.857 0 -196.48 -87.623 -196.48 -196.48s87.623 -196.44 196.48 -196.44s196.44 87.583 196.44 196.44s-87.583 196.48 -196.44 196.48z
M261.319 323.119c29.7383 0.670898 59.7139 -6.50098 85.2402 -21.7607c-3.55664 -8.79297 -7.96777 -17.207 -11.96 -25.7998c-1.93164 -10.0723 -10.2998 -20.6465 -21.6807 -19.1602c-24.3135 10.8379 -53.9561 17.2832 -78.9199 4.59961
c-23.8955 -12.4004 -32.7764 -40.9785 -32.9199 -66.3193c-0.868164 -26.0283 5.45801 -56.6738 29.5605 -70.9189c27.5547 -14.0469 60.1904 -6.46582 88.7998 0.919922c8.34766 3.85059 15.9805 -5.15332 15.04 -13.1602
c-2.92871 -12.2686 4.60645 -28.0166 -5.88086 -37.959c-22.8271 -10.6689 -49.0938 -13.3682 -74.2393 -12.4404c-36.5879 -0.445312 -73.1641 17.5947 -92.9209 48.6797c-22.7734 38.958 -26.4014 88.3838 -13.3193 131.36c12.7002 49.4014 63.1113 82.9912 113.2 81.959z
" />
    <glyph glyph-name="uniF11A" unicode="&#xf11a;" 
d="M502.496 326.503c6.32715 -6.34082 9.50391 -13.8379 9.50391 -22.5029c0 -8.66699 -3.17676 -16.1641 -9.50391 -22.499l-223.998 -223.999c-6.3291 -6.33398 -13.833 -9.50586 -22.498 -9.50586s-16.1621 3.17188 -22.5039 9.50586l-223.997 223.998
c-6.33496 6.33594 -9.49902 13.833 -9.49902 22.498c0 8.66699 3.16406 16.1641 9.49902 22.5049c6.33398 6.33496 13.8311 9.49902 22.5029 9.49902h447.994c8.66797 0 16.1709 -3.16406 22.5 -9.49902z" />
    <glyph glyph-name="uniF118" unicode="&#xf118;" 
d="M0 396.58c0 14.502 11.7559 26.2568 26.2568 26.2568h459.487c14.502 0 26.2559 -11.7559 26.2559 -26.2568l-236.308 -426.664s-19.6924 -19.6934 -39.3857 0c-19.6914 19.6924 -236.307 426.664 -236.307 426.664z" />
  </font>
</defs></svg>
